{
    "title": "Үнэт цаасны зуучлал",
    "description": "Монголын хөрөнгийн биржийн арилжааны системтэй шууд холбогдсон электрон арилжааны системийг ашиглан үнэт цаасны арилжаанд хамгийн түргэн шуурхай, цаг хугацааны хоцрогдолгүйгээр оролцох, үнэт цаасны дансаа удирдах боломжтой.",
    "title1": "Хөрөнгө оруулалтын банк",
    "description1": "Монголын хөрөнгийн биржийн арилжааны системтэй шууд холбогдсон электрон арилжааны системийг ашиглан үнэт цаасны арилжаанд хамгийн түргэн шуурхай, цаг хугацааны хоцрогдолгүйгээр оролцох, үнэт цаасны дансаа удирдах боломжтой.",
    "title2": "Хөрөнгө оруулалтын зөвлөх",
    "description2": "Монголын хөрөнгийн биржийн арилжааны системтэй шууд холбогдсон электрон арилжааны системийг ашиглан үнэт цаасны арилжаанд хамгийн түргэн шуурхай, цаг хугацааны хоцрогдолгүйгээр оролцох, үнэт цаасны дансаа удирдах боломжтой.",
    "title3": "Хөрөнгө оруулалтын зөвлөх",
    "description3": "On May 2, 2024, Apple Inc (NASDAQ:AAPL) disclosed its financial outcomes for the fiscal second quarter ending March 30, 2024, through an 8-K filing...",
    "title4": "New York Stock Exchange:",
    "description4": "On May 2, 2024, Apple Inc (NASDAQ:AAPL) disclosed its financial outcomes for the fiscal second quarter ending March 30, 2024, through an 8-K filing...",
    "title5": "Fed's Powell says:",
    "description5": "On May 2, 2024, Apple Inc (NASDAQ:AAPL) disclosed its financial outcomes for the fiscal second quarter ending March 30, 2024, through an 8-K filing..." ,
    "image": "<div className='h-48 bg-cover bg-center' style={{ backgroundImage: 'url('/apple.jpg')', borderTopLeftRadius: '20px', borderTopRightRadius: '20px' }}></div>"
  }

